^D:\CODING STUFF\SDL-CPP-PROGRAMMING-TEST\SDL-CPP-PROGRAMMINGTEST\SDL-CPP-PROGRAMMINGTEST\BALL.CPP|D:\CODING STUFF\SDL-CPP-PROGRAMMING-TEST\SDL-CPP-PROGRAMMINGTEST\SDL-CPP-PROGRAMMINGTEST\BRICK.CPP|D:\CODING STUFF\SDL-CPP-PROGRAMMING-TEST\SDL-CPP-PROGRAMMINGTEST\SDL-CPP-PROGRAMMINGTEST\GAME.CPP|D:\CODING STUFF\SDL-CPP-PROGRAMMING-TEST\SDL-CPP-PROGRAMMINGTEST\SDL-CPP-PROGRAMMINGTEST\GAMEOBJECT.CPP|D:\CODING STUFF\SDL-CPP-PROGRAMMING-TEST\SDL-CPP-PROGRAMMINGTEST\SDL-CPP-PROGRAMMINGTEST\MAIN.CPP|D:\CODING STUFF\SDL-CPP-PROGRAMMING-TEST\SDL-CPP-PROGRAMMINGTEST\SDL-CPP-PROGRAMMINGTEST\PADDLE.CPP|D:\CODING STUFF\SDL-CPP-PROGRAMMING-TEST\SDL-CPP-PROGRAMMINGTEST\SDL-CPP-PROGRAMMINGTEST\SCENE.CPP|D:\CODING STUFF\SDL-CPP-PROGRAMMING-TEST\SDL-CPP-PROGRAMMINGTEST\SDL-CPP-PROGRAMMINGTEST\SCENEGAME.CPP
D:\CODING STUFF\SDL-CPP-PROGRAMMING-TEST\SDL-CPP-PROGRAMMINGTEST\SDL-CPP-PROGRAMMINGTEST\X64\RELEASE\VC142.PDB
D:\CODING STUFF\SDL-CPP-PROGRAMMING-TEST\SDL-CPP-PROGRAMMINGTEST\SDL-CPP-PROGRAMMINGTEST\X64\RELEASE\SCENEGAME.OBJ
D:\CODING STUFF\SDL-CPP-PROGRAMMING-TEST\SDL-CPP-PROGRAMMINGTEST\SDL-CPP-PROGRAMMINGTEST\X64\RELEASE\SCENE.OBJ
D:\CODING STUFF\SDL-CPP-PROGRAMMING-TEST\SDL-CPP-PROGRAMMINGTEST\SDL-CPP-PROGRAMMINGTEST\X64\RELEASE\PADDLE.OBJ
D:\CODING STUFF\SDL-CPP-PROGRAMMING-TEST\SDL-CPP-PROGRAMMINGTEST\SDL-CPP-PROGRAMMINGTEST\X64\RELEASE\MAIN.OBJ
D:\CODING STUFF\SDL-CPP-PROGRAMMING-TEST\SDL-CPP-PROGRAMMINGTEST\SDL-CPP-PROGRAMMINGTEST\X64\RELEASE\GAMEOBJECT.OBJ
D:\CODING STUFF\SDL-CPP-PROGRAMMING-TEST\SDL-CPP-PROGRAMMINGTEST\SDL-CPP-PROGRAMMINGTEST\X64\RELEASE\GAME.OBJ
D:\CODING STUFF\SDL-CPP-PROGRAMMING-TEST\SDL-CPP-PROGRAMMINGTEST\SDL-CPP-PROGRAMMINGTEST\X64\RELEASE\BRICK.OBJ
D:\CODING STUFF\SDL-CPP-PROGRAMMING-TEST\SDL-CPP-PROGRAMMINGTEST\SDL-CPP-PROGRAMMINGTEST\X64\RELEASE\BALL.OBJ
^D:\CODING STUFF\SDL-CPP-PROGRAMMING-TEST\SDL-CPP-PROGRAMMINGTEST\SDL-CPP-PROGRAMMINGTEST\BALL.CPP
D:\CODING STUFF\SDL-CPP-PROGRAMMING-TEST\SDL-CPP-PROGRAMMINGTEST\SDL-CPP-PROGRAMMINGTEST\X64\RELEASE\VC142.PDB
^D:\CODING STUFF\SDL-CPP-PROGRAMMING-TEST\SDL-CPP-PROGRAMMINGTEST\SDL-CPP-PROGRAMMINGTEST\GAME.CPP
D:\CODING STUFF\SDL-CPP-PROGRAMMING-TEST\SDL-CPP-PROGRAMMINGTEST\SDL-CPP-PROGRAMMINGTEST\X64\RELEASE\VC142.PDB
^D:\CODING STUFF\SDL-CPP-PROGRAMMING-TEST\SDL-CPP-PROGRAMMINGTEST\SDL-CPP-PROGRAMMINGTEST\GAMEOBJECT.CPP
D:\CODING STUFF\SDL-CPP-PROGRAMMING-TEST\SDL-CPP-PROGRAMMINGTEST\SDL-CPP-PROGRAMMINGTEST\X64\RELEASE\VC142.PDB
^D:\CODING STUFF\SDL-CPP-PROGRAMMING-TEST\SDL-CPP-PROGRAMMINGTEST\SDL-CPP-PROGRAMMINGTEST\MAIN.CPP
D:\CODING STUFF\SDL-CPP-PROGRAMMING-TEST\SDL-CPP-PROGRAMMINGTEST\SDL-CPP-PROGRAMMINGTEST\X64\RELEASE\VC142.PDB
^D:\CODING STUFF\SDL-CPP-PROGRAMMING-TEST\SDL-CPP-PROGRAMMINGTEST\SDL-CPP-PROGRAMMINGTEST\SCENE.CPP
D:\CODING STUFF\SDL-CPP-PROGRAMMING-TEST\SDL-CPP-PROGRAMMINGTEST\SDL-CPP-PROGRAMMINGTEST\X64\RELEASE\VC142.PDB
^D:\CODING STUFF\SDL-CPP-PROGRAMMING-TEST\SDL-CPP-PROGRAMMINGTEST\SDL-CPP-PROGRAMMINGTEST\SCENEGAME.CPP
D:\CODING STUFF\SDL-CPP-PROGRAMMING-TEST\SDL-CPP-PROGRAMMINGTEST\SDL-CPP-PROGRAMMINGTEST\X64\RELEASE\VC142.PDB
^D:\CODING STUFF\SDL-CPP-PROGRAMMING-TEST\SDL-CPP-PROGRAMMINGTEST\SDL-CPP-PROGRAMMINGTEST\BRICK.CPP|D:\CODING STUFF\SDL-CPP-PROGRAMMING-TEST\SDL-CPP-PROGRAMMINGTEST\SDL-CPP-PROGRAMMINGTEST\PADDLE.CPP
D:\CODING STUFF\SDL-CPP-PROGRAMMING-TEST\SDL-CPP-PROGRAMMINGTEST\SDL-CPP-PROGRAMMINGTEST\X64\RELEASE\VC142.PDB
D:\CODING STUFF\SDL-CPP-PROGRAMMING-TEST\SDL-CPP-PROGRAMMINGTEST\SDL-CPP-PROGRAMMINGTEST\X64\RELEASE\PADDLE.OBJ
D:\CODING STUFF\SDL-CPP-PROGRAMMING-TEST\SDL-CPP-PROGRAMMINGTEST\SDL-CPP-PROGRAMMINGTEST\X64\RELEASE\BRICK.OBJ
^D:\CODING STUFF\SDL-CPP-PROGRAMMING-TEST\SDL-CPP-PROGRAMMINGTEST\SDL-CPP-PROGRAMMINGTEST\PADDLE.CPP
D:\CODING STUFF\SDL-CPP-PROGRAMMING-TEST\SDL-CPP-PROGRAMMINGTEST\SDL-CPP-PROGRAMMINGTEST\X64\RELEASE\VC142.PDB
^D:\CODING STUFF\SDL-CPP-PROGRAMMING-TEST\SDL-CPP-PROGRAMMINGTEST\SDL-CPP-PROGRAMMINGTEST\BRICK.CPP
D:\CODING STUFF\SDL-CPP-PROGRAMMING-TEST\SDL-CPP-PROGRAMMINGTEST\SDL-CPP-PROGRAMMINGTEST\X64\RELEASE\VC142.PDB
D:\CODING STUFF\SDL-CPP-PROGRAMMING-TEST\SDL-CPP-PROGRAMMINGTEST\SDL-CPP-PROGRAMMINGTEST\X64\RELEASE\BRICK.OBJ
